\relax 
\providecommand\hyper@newdestlabel[2]{}
\bbl@beforestart
\providecommand\HyperFirstAtBeginDocument{\AtBeginDocument}
\HyperFirstAtBeginDocument{\ifx\hyper@anchor\@undefined
\global\let\oldcontentsline\contentsline
\gdef\contentsline#1#2#3#4{\oldcontentsline{#1}{#2}{#3}}
\global\let\oldnewlabel\newlabel
\gdef\newlabel#1#2{\newlabelxx{#1}#2}
\gdef\newlabelxx#1#2#3#4#5#6{\oldnewlabel{#1}{{#2}{#3}}}
\AtEndDocument{\ifx\hyper@anchor\@undefined
\let\contentsline\oldcontentsline
\let\newlabel\oldnewlabel
\fi}
\fi}
\global\let\hyper@last\relax 
\gdef\HyperFirstAtBeginDocument#1{#1}
\providecommand\HyField@AuxAddToFields[1]{}
\providecommand\HyField@AuxAddToCoFields[2]{}
\babel@aux{italian}{}
\babel@aux{italian}{}
\@writefile{toc}{\contentsline {section}{\numberline {1}Cos'è Hadoop}{2}{section.1}\protected@file@percent }
\@writefile{toc}{\contentsline {section}{\numberline {2}Struttura}{2}{section.2}\protected@file@percent }
\@writefile{lof}{\contentsline {figure}{\numberline {1}{\ignorespaces }}{2}{figure.1}\protected@file@percent }
\newlabel{fig:clusterhadoop}{{1}{2}{}{figure.1}{}}
\@writefile{toc}{\contentsline {section}{\numberline {3}Proprietà principali del sistema}{2}{section.3}\protected@file@percent }
\@writefile{toc}{\contentsline {section}{\numberline {4}Architettura}{3}{section.4}\protected@file@percent }
\@writefile{toc}{\contentsline {subsection}{\numberline {4.1}Hadoop Distributed File System (HDFS)}{3}{subsection.4.1}\protected@file@percent }
\@writefile{toc}{\contentsline {subsubsection}{\numberline {4.1.1}Blocchi}{3}{subsubsection.4.1.1}\protected@file@percent }
\@writefile{toc}{\contentsline {subsection}{\numberline {4.2}MapReduce}{3}{subsection.4.2}\protected@file@percent }
\@writefile{lof}{\contentsline {figure}{\numberline {2}{\ignorespaces Architettura HDFS}}{4}{figure.2}\protected@file@percent }
\newlabel{fig:archhdfs}{{2}{4}{Architettura HDFS}{figure.2}{}}
\@writefile{toc}{\contentsline {subsubsection}{\numberline {4.2.1}Funzionamento}{4}{subsubsection.4.2.1}\protected@file@percent }
\@writefile{lof}{\contentsline {figure}{\numberline {3}{\ignorespaces Job MapReduce}}{5}{figure.3}\protected@file@percent }
\newlabel{fig:mapreduce}{{3}{5}{Job MapReduce}{figure.3}{}}
\@writefile{toc}{\contentsline {subsubsection}{\numberline {4.2.2}Architettura}{5}{subsubsection.4.2.2}\protected@file@percent }
\@writefile{toc}{\contentsline {subsection}{\numberline {4.3}YARN}{5}{subsection.4.3}\protected@file@percent }
\@writefile{lof}{\contentsline {figure}{\numberline {4}{\ignorespaces  Architettura MapReduce}}{6}{figure.4}\protected@file@percent }
\newlabel{fig:mapreduce2}{{4}{6}{Architettura MapReduce}{figure.4}{}}
\@writefile{toc}{\contentsline {section}{\numberline {5}Hadoop High Availability}{6}{section.5}\protected@file@percent }
\@writefile{toc}{\contentsline {subsubsection}{\numberline {5.0.1}ZooKeeper quorum}{6}{subsubsection.5.0.1}\protected@file@percent }
\@writefile{toc}{\contentsline {subsubsection}{\numberline {5.0.2}ZKFailoverController Process (ZKFC)}{7}{subsubsection.5.0.2}\protected@file@percent }
\@writefile{toc}{\contentsline {section}{\numberline {6}Hadoop Schedulers}{7}{section.6}\protected@file@percent }
\@writefile{toc}{\contentsline {subsubsection}{\numberline {6.0.1}Tipi di scheduler principali}{7}{subsubsection.6.0.1}\protected@file@percent }
\citation{*}
\bibstyle{ieeetran}
\bibdata{biblio.bib}
\bibcite{mapRed}{1}
\bibcite{hadoop}{2}
\bibcite{hadoop2}{3}
\bibcite{tesi}{4}
\bibcite{hadoop3}{5}
\@writefile{toc}{\contentsline {subsubsection}{\numberline {6.0.2}Quale scheduler utilizzare?}{8}{subsubsection.6.0.2}\protected@file@percent }
\@writefile{toc}{\contentsline {section}{\numberline {7}Limitazioni}{8}{section.7}\protected@file@percent }
\bibcite{hadoop4}{6}
\bibcite{hadoop5}{7}
\bibcite{hadoopSched}{8}
\bibcite{hadoopAvail}{9}
