This is BibTeX, Version 0.99d (TeX Live 2019/W32TeX)
Capacity: max_strings=100000, hash_size=100000, hash_prime=85009
The top-level auxiliary file: template_Article.aux
The style file: ieeetran.bst
Reallocated singl_function (elt_size=4) to 100 items from 50.
Reallocated singl_function (elt_size=4) to 100 items from 50.
Reallocated singl_function (elt_size=4) to 100 items from 50.
Reallocated wiz_functions (elt_size=4) to 6000 items from 3000.
Reallocated singl_function (elt_size=4) to 100 items from 50.
Database file #1: biblio.bib
-- IEEEtran.bst version 1.14 (2015/08/26) by Michael Shell.
-- http://www.michaelshell.org/tex/ieeetran/bibtex/
-- See the "IEEEtran_bst_HOWTO.pdf" manual for usage information.

Done.
You've used 9 entries,
            4087 wiz_defined-function locations,
            850 strings with 8110 characters,
and the built_in function-call counts, 2500 in all, are:
= -- 144
> -- 9
< -- 0
+ -- 9
- -- 0
* -- 73
:= -- 380
add.period$ -- 18
call.type$ -- 9
change.case$ -- 9
chr.to.int$ -- 0
cite$ -- 9
duplicate$ -- 252
empty$ -- 307
format.name$ -- 0
if$ -- 561
int.to.chr$ -- 0
int.to.str$ -- 9
missing$ -- 54
newline$ -- 50
num.names$ -- 0
pop$ -- 171
preamble$ -- 1
purify$ -- 0
quote$ -- 2
skip$ -- 216
stack$ -- 0
substring$ -- 9
swap$ -- 108
text.length$ -- 0
text.prefix$ -- 0
top$ -- 5
type$ -- 9
warning$ -- 0
while$ -- 0
width$ -- 10
write$ -- 76
