\BOOKMARK [1][-]{section.1}{Presentazione della sandox scelta}{}% 1
\BOOKMARK [2][-]{subsection.1.1}{Schema del grafo}{section.1}% 2
\BOOKMARK [1][-]{section.2}{Analisi del grafo}{}% 3
\BOOKMARK [2][-]{subsection.2.1}{Community analysis}{section.2}% 4
\BOOKMARK [3][-]{subsubsection.2.1.1}{Query 1}{subsection.2.1}% 5
\BOOKMARK [2][-]{subsection.2.2}{Centrality Analysis}{section.2}% 6
\BOOKMARK [3][-]{subsubsection.2.2.1}{Query 1}{subsection.2.2}% 7
\BOOKMARK [3][-]{subsubsection.2.2.2}{Query 2}{subsection.2.2}% 8
\BOOKMARK [3][-]{subsubsection.2.2.3}{Query 3}{subsection.2.2}% 9
\BOOKMARK [3][-]{subsubsection.2.2.4}{Query 4}{subsection.2.2}% 10
\BOOKMARK [2][-]{subsection.2.3}{PathFinding Analysis}{section.2}% 11
\BOOKMARK [3][-]{subsubsection.2.3.1}{Query 1}{subsection.2.3}% 12
