\relax 
\providecommand\hyper@newdestlabel[2]{}
\@nameuse{bbl@beforestart}
\providecommand\HyperFirstAtBeginDocument{\AtBeginDocument}
\HyperFirstAtBeginDocument{\ifx\hyper@anchor\@undefined
\global\let\oldcontentsline\contentsline
\gdef\contentsline#1#2#3#4{\oldcontentsline{#1}{#2}{#3}}
\global\let\oldnewlabel\newlabel
\gdef\newlabel#1#2{\newlabelxx{#1}#2}
\gdef\newlabelxx#1#2#3#4#5#6{\oldnewlabel{#1}{{#2}{#3}}}
\AtEndDocument{\ifx\hyper@anchor\@undefined
\let\contentsline\oldcontentsline
\let\newlabel\oldnewlabel
\fi}
\fi}
\global\let\hyper@last\relax 
\gdef\HyperFirstAtBeginDocument#1{#1}
\providecommand\HyField@AuxAddToFields[1]{}
\providecommand\HyField@AuxAddToCoFields[2]{}
\babel@aux{italian}{}
\babel@aux{italian}{}
\@writefile{toc}{\contentsline {section}{\numberline {1}Presentazione della sandox scelta}{2}{section.1}\protected@file@percent }
\@writefile{toc}{\contentsline {subsection}{\numberline {1.1}Schema del grafo}{2}{subsection.1.1}\protected@file@percent }
\@writefile{lof}{\contentsline {figure}{\numberline {1}{\ignorespaces Schema db}}{3}{figure.1}\protected@file@percent }
\newlabel{fig:graph}{{1}{3}{Schema db}{figure.1}{}}
\@writefile{toc}{\contentsline {section}{\numberline {2}Analisi del grafo}{4}{section.2}\protected@file@percent }
\@writefile{toc}{\contentsline {subsection}{\numberline {2.1}Community analysis}{4}{subsection.2.1}\protected@file@percent }
\@writefile{toc}{\contentsline {subsubsection}{\numberline {2.1.1}Query 1}{4}{subsubsection.2.1.1}\protected@file@percent }
\@writefile{lof}{\contentsline {figure}{\numberline {2}{\ignorespaces Community Analysis}}{5}{figure.2}\protected@file@percent }
\newlabel{fig:community}{{2}{5}{Community Analysis}{figure.2}{}}
\@writefile{toc}{\contentsline {subsection}{\numberline {2.2}Centrality Analysis}{5}{subsection.2.2}\protected@file@percent }
\@writefile{toc}{\contentsline {subsubsection}{\numberline {2.2.1}Query 1}{5}{subsubsection.2.2.1}\protected@file@percent }
\@writefile{lof}{\contentsline {figure}{\numberline {3}{\ignorespaces Centrality Analysis 1}}{6}{figure.3}\protected@file@percent }
\newlabel{fig:degreecentrality}{{3}{6}{Centrality Analysis 1}{figure.3}{}}
\@writefile{toc}{\contentsline {subsubsection}{\numberline {2.2.2}Query 2}{6}{subsubsection.2.2.2}\protected@file@percent }
\@writefile{lof}{\contentsline {figure}{\numberline {4}{\ignorespaces Centrality Analysis 2}}{7}{figure.4}\protected@file@percent }
\newlabel{fig:pagerankcentrality}{{4}{7}{Centrality Analysis 2}{figure.4}{}}
\@writefile{toc}{\contentsline {subsubsection}{\numberline {2.2.3}Query 3}{7}{subsubsection.2.2.3}\protected@file@percent }
\@writefile{lof}{\contentsline {figure}{\numberline {5}{\ignorespaces Centrality Analysis 3}}{8}{figure.5}\protected@file@percent }
\newlabel{fig:pagerankcentrality2}{{5}{8}{Centrality Analysis 3}{figure.5}{}}
\@writefile{toc}{\contentsline {subsubsection}{\numberline {2.2.4}Query 4}{8}{subsubsection.2.2.4}\protected@file@percent }
\@writefile{lof}{\contentsline {figure}{\numberline {6}{\ignorespaces }}{9}{figure.6}\protected@file@percent }
\newlabel{fig:betwennescentrality}{{6}{9}{}{figure.6}{}}
\@writefile{toc}{\contentsline {subsection}{\numberline {2.3}PathFinding Analysis}{9}{subsection.2.3}\protected@file@percent }
\@writefile{toc}{\contentsline {subsubsection}{\numberline {2.3.1}Query 1}{9}{subsubsection.2.3.1}\protected@file@percent }
\@writefile{lof}{\contentsline {figure}{\numberline {7}{\ignorespaces PathFinding Analysis}}{10}{figure.7}\protected@file@percent }
\newlabel{fig:pathfinding}{{7}{10}{PathFinding Analysis}{figure.7}{}}
