\babel@toc {italian}{}
\babel@toc {italian}{}
\contentsline {section}{\numberline {1}Presentazione della sandox scelta}{2}{section.1}%
\contentsline {subsection}{\numberline {1.1}Schema del grafo}{2}{subsection.1.1}%
\contentsline {section}{\numberline {2}Analisi del grafo}{4}{section.2}%
\contentsline {subsection}{\numberline {2.1}Community analysis}{4}{subsection.2.1}%
\contentsline {subsubsection}{\numberline {2.1.1}Query 1}{4}{subsubsection.2.1.1}%
\contentsline {subsection}{\numberline {2.2}Centrality Analysis}{5}{subsection.2.2}%
\contentsline {subsubsection}{\numberline {2.2.1}Query 1}{5}{subsubsection.2.2.1}%
\contentsline {subsubsection}{\numberline {2.2.2}Query 2}{6}{subsubsection.2.2.2}%
\contentsline {subsubsection}{\numberline {2.2.3}Query 3}{7}{subsubsection.2.2.3}%
\contentsline {subsubsection}{\numberline {2.2.4}Query 4}{8}{subsubsection.2.2.4}%
\contentsline {subsection}{\numberline {2.3}PathFinding Analysis}{9}{subsection.2.3}%
\contentsline {subsubsection}{\numberline {2.3.1}Query 1}{9}{subsubsection.2.3.1}%
