\BOOKMARK [0][-]{chapter.1}{Introduzione}{}% 1
\BOOKMARK [0][-]{chapter.2}{Implementazione Script}{}% 2
\BOOKMARK [1][-]{section.2.1}{Studio del codice}{chapter.2}% 3
\BOOKMARK [0][-]{chapter.3}{Studio tecniche di filtraggio}{}% 4
\BOOKMARK [1][-]{section.3.1}{Collaborative filtering}{chapter.3}% 5
\BOOKMARK [1][-]{section.3.2}{Content-based filtering}{chapter.3}% 6
