\babel@toc {italian}{}
\babel@toc {italian}{}
\contentsline {chapter}{\numberline {1}Introduzione}{1}{chapter.1}% 
\contentsline {chapter}{\numberline {2}Implementazione Script}{3}{chapter.2}% 
\contentsline {section}{\numberline {2.1}Studio del codice}{3}{section.2.1}% 
\contentsline {chapter}{\numberline {3}Studio tecniche di filtraggio}{7}{chapter.3}% 
\contentsline {section}{\numberline {3.1}Collaborative filtering}{7}{section.3.1}% 
\contentsline {section}{\numberline {3.2}Content-based filtering}{10}{section.3.2}% 
