\relax 
\providecommand\hyper@newdestlabel[2]{}
\@writefile{toc}{\contentsline {chapter}{\numberline {5}Esecuzione query}{11}{chapter.5}\protected@file@percent }
\@writefile{lof}{\addvspace {10\p@ }}
\@writefile{lot}{\addvspace {10\p@ }}
\@writefile{toc}{\contentsline {section}{\numberline {5.1}Query 1}{11}{section.5.1}\protected@file@percent }
\@writefile{lof}{\contentsline {figure}{\numberline {5.1}{\ignorespaces query1 result}}{12}{figure.5.1}\protected@file@percent }
\newlabel{fig:query1}{{5.1}{12}{query1 result}{figure.5.1}{}}
\@writefile{toc}{\contentsline {section}{\numberline {5.2}Query 2}{12}{section.5.2}\protected@file@percent }
\@writefile{lof}{\contentsline {figure}{\numberline {5.2}{\ignorespaces query2 result}}{13}{figure.5.2}\protected@file@percent }
\newlabel{fig:query2}{{5.2}{13}{query2 result}{figure.5.2}{}}
\@writefile{toc}{\contentsline {section}{\numberline {5.3}Query 3}{13}{section.5.3}\protected@file@percent }
\@writefile{lof}{\contentsline {figure}{\numberline {5.3}{\ignorespaces query3 result}}{14}{figure.5.3}\protected@file@percent }
\newlabel{fig:query3}{{5.3}{14}{query3 result}{figure.5.3}{}}
\@writefile{toc}{\contentsline {section}{\numberline {5.4}Query 4}{14}{section.5.4}\protected@file@percent }
\@writefile{lof}{\contentsline {figure}{\numberline {5.4}{\ignorespaces query4 result}}{15}{figure.5.4}\protected@file@percent }
\newlabel{fig:query4}{{5.4}{15}{query4 result}{figure.5.4}{}}
\@writefile{toc}{\contentsline {section}{\numberline {5.5}Query 5}{15}{section.5.5}\protected@file@percent }
\@writefile{lof}{\contentsline {figure}{\numberline {5.5}{\ignorespaces query5 result}}{16}{figure.5.5}\protected@file@percent }
\newlabel{fig:query5}{{5.5}{16}{query5 result}{figure.5.5}{}}
\@setckpt{./TeX_files/chapter05}{
\setcounter{page}{17}
\setcounter{equation}{0}
\setcounter{enumi}{0}
\setcounter{enumii}{0}
\setcounter{enumiii}{0}
\setcounter{enumiv}{0}
\setcounter{footnote}{0}
\setcounter{mpfootnote}{0}
\setcounter{part}{0}
\setcounter{chapter}{5}
\setcounter{section}{5}
\setcounter{subsection}{0}
\setcounter{subsubsection}{0}
\setcounter{paragraph}{0}
\setcounter{subparagraph}{0}
\setcounter{figure}{5}
\setcounter{table}{0}
\setcounter{Item}{0}
\setcounter{Hfootnote}{0}
\setcounter{bookmark@seq@number}{12}
\setcounter{float@type}{8}
\setcounter{lstnumber}{22}
\setcounter{section@level}{1}
\setcounter{lstlisting}{0}
}
