\relax 
\providecommand\hyper@newdestlabel[2]{}
\@writefile{toc}{\contentsline {chapter}{\numberline {3}Studio tecniche di filtraggio}{7}{chapter.3}\protected@file@percent }
\@writefile{lof}{\addvspace {10\p@ }}
\@writefile{lot}{\addvspace {10\p@ }}
\@writefile{toc}{\contentsline {section}{\numberline {3.1}Collaborative filtering}{7}{section.3.1}\protected@file@percent }
\@writefile{lof}{\contentsline {figure}{\numberline {3.1}{\ignorespaces Risultato query 1}}{8}{figure.3.1}\protected@file@percent }
\newlabel{fig:collfilt1}{{3.1}{8}{Risultato query 1}{figure.3.1}{}}
\@writefile{lof}{\contentsline {figure}{\numberline {3.2}{\ignorespaces Risultato query 2}}{9}{figure.3.2}\protected@file@percent }
\newlabel{fig:collfilt2}{{3.2}{9}{Risultato query 2}{figure.3.2}{}}
\@writefile{lof}{\contentsline {figure}{\numberline {3.3}{\ignorespaces  Risultato query 3}}{10}{figure.3.3}\protected@file@percent }
\newlabel{fig:collabfilt3}{{3.3}{10}{Risultato query 3}{figure.3.3}{}}
\@writefile{toc}{\contentsline {section}{\numberline {3.2}Content-based filtering}{10}{section.3.2}\protected@file@percent }
\@writefile{lof}{\contentsline {figure}{\numberline {3.4}{\ignorespaces Risultato query 1 del content-based-filtering}}{11}{figure.3.4}\protected@file@percent }
\newlabel{fig:contfilt1}{{3.4}{11}{Risultato query 1 del content-based-filtering}{figure.3.4}{}}
\@writefile{lof}{\contentsline {figure}{\numberline {3.5}{\ignorespaces Risultato query 2 del content-based-filtering}}{12}{figure.3.5}\protected@file@percent }
\newlabel{fig:contfilt2}{{3.5}{12}{Risultato query 2 del content-based-filtering}{figure.3.5}{}}
\@setckpt{./TeX_files/chapter03}{
\setcounter{page}{13}
\setcounter{equation}{0}
\setcounter{enumi}{0}
\setcounter{enumii}{0}
\setcounter{enumiii}{0}
\setcounter{enumiv}{0}
\setcounter{footnote}{0}
\setcounter{mpfootnote}{0}
\setcounter{part}{0}
\setcounter{chapter}{3}
\setcounter{section}{2}
\setcounter{subsection}{0}
\setcounter{subsubsection}{0}
\setcounter{paragraph}{0}
\setcounter{subparagraph}{0}
\setcounter{figure}{5}
\setcounter{table}{0}
\setcounter{Item}{0}
\setcounter{Hfootnote}{0}
\setcounter{bookmark@seq@number}{6}
\setcounter{float@type}{8}
\setcounter{lstnumber}{11}
\setcounter{section@level}{1}
\setcounter{lstlisting}{0}
}
