\BOOKMARK [0][-]{chapter.1}{Introduzione}{}% 1
\BOOKMARK [0][-]{chapter.2}{Script python}{}% 2
\BOOKMARK [1][-]{section.2.1}{Funzionamento}{chapter.2}% 3
\BOOKMARK [0][-]{chapter.3}{Creazione database e import dati}{}% 4
\BOOKMARK [1][-]{section.3.1}{Creazione database e collezioni}{chapter.3}% 5
\BOOKMARK [0][-]{chapter.4}{Import dei dati}{}% 6
\BOOKMARK [0][-]{chapter.5}{Esecuzione query}{}% 7
\BOOKMARK [1][-]{section.5.1}{Query 1}{chapter.5}% 8
\BOOKMARK [1][-]{section.5.2}{Query 2}{chapter.5}% 9
\BOOKMARK [1][-]{section.5.3}{Query 3}{chapter.5}% 10
\BOOKMARK [1][-]{section.5.4}{Query 4}{chapter.5}% 11
\BOOKMARK [1][-]{section.5.5}{Query 5}{chapter.5}% 12
