\babel@toc {italian}{}
\babel@toc {italian}{}
\contentsline {chapter}{\numberline {1}Introduzione}{1}{chapter.1}% 
\contentsline {chapter}{\numberline {2}Script python}{3}{chapter.2}% 
\contentsline {section}{\numberline {2.1}Funzionamento}{3}{section.2.1}% 
\contentsline {chapter}{\numberline {3}Creazione database e import dati}{7}{chapter.3}% 
\contentsline {section}{\numberline {3.1}Creazione database e collezioni}{7}{section.3.1}% 
\contentsline {chapter}{\numberline {4}Import dei dati}{9}{chapter.4}% 
\contentsline {chapter}{\numberline {5}Esecuzione query}{11}{chapter.5}% 
\contentsline {section}{\numberline {5.1}Query 1}{11}{section.5.1}% 
\contentsline {section}{\numberline {5.2}Query 2}{12}{section.5.2}% 
\contentsline {section}{\numberline {5.3}Query 3}{13}{section.5.3}% 
\contentsline {section}{\numberline {5.4}Query 4}{14}{section.5.4}% 
\contentsline {section}{\numberline {5.5}Query 5}{15}{section.5.5}% 
